…
nyc = 
  read_csv("data/NYC_Transit_Subway_Entrance_And_Exit_Data.csv") |>
  janitor::clean_names()

nyc_clean = 
  nyc |>
  select(line, station_name, station_latitude, station_longitude, route1:route11, 
         entry, vending, entrance_type, ada) |>
  mutate(entry = ifelse(entry == "YES", TRUE, FALSE))

nyc_clean
```

    ## # A tibble: 1,868 × 19
    ##    line     station_name station_latitude station_longitude route1 route2 route3
    ##    <chr>    <chr>                   <dbl>             <dbl> <chr>  <chr>  <chr> 
    ##  1 4 Avenue 25th St                  40.7             -74.0 R      <NA>   <NA>  
    ##  2 4 Avenue 25th St                  40.7             -74.0 R      <NA>   <NA>  
    ##  3 4 Avenue 36th St                  40.7             -74.0 N      R      <NA>  
    ##  4 4 Avenue 36th St                  40.7             -74.0 N      R      <NA>  
    ##  5 4 Avenue 36th St                  40.7             -74.0 N      R      <NA>  
    ##  6 4 Avenue 45th St                  40.6             -74.0 R      <NA>   <NA>  
    ##  7 4 Avenue 45th St                  40.6             -74.0 R      <NA>   <NA>  
    ##  8 4 Avenue 45th St                  40.6             -74.0 R      <NA>   <NA>  
    ##  9 4 Avenue 45th St                  40.6             -74.0 R      <NA>   <NA>  
    ## 10 4 Avenue 53rd St                  40.6             -74.0 R      <NA>   <NA>  
    ## # ℹ 1,858 more rows
    ## # ℹ 12 more variables: route4 <chr>, route5 <chr>, route6 <chr>, route7 <chr>,
    ## #   route8 <dbl>, route9 <dbl>, route10 <dbl>, route11 <dbl>, entry <lgl>,
    ## #   vending <chr>, entrance_type <chr>, ada <lgl>
…
``` r
nyc_routes = 
  nyc_clean |>
  mutate(across(starts_with("route"), as.character)) |>
  pivot_longer(
    route1:route11,
    names_to = "route_name", 
    values_to = "route_number") |>
  filter(!is.na(route_number))

nyc_routes
```

    ## # A tibble: 4,270 × 10
    ##    line     station_name station_latitude station_longitude entry vending
    ##    <chr>    <chr>                   <dbl>             <dbl> <lgl> <chr>  
    ##  1 4 Avenue 25th St                  40.7             -74.0 TRUE  YES    
    ##  2 4 Avenue 25th St                  40.7             -74.0 TRUE  YES    
    ##  3 4 Avenue 36th St                  40.7             -74.0 TRUE  YES    
    ##  4 4 Avenue 36th St                  40.7             -74.0 TRUE  YES    
    ##  5 4 Avenue 36th St                  40.7             -74.0 TRUE  YES    
    ##  6 4 Avenue 36th St                  40.7             -74.0 TRUE  YES    
    ##  7 4 Avenue 36th St                  40.7             -74.0 TRUE  YES    
    ##  8 4 Avenue 36th St                  40.7             -74.0 TRUE  YES    
    ##  9 4 Avenue 45th St                  40.6             -74.0 TRUE  YES    
    ## 10 4 Avenue 45th St                  40.6             -74.0 TRUE  YES    
    ## # ℹ 4,260 more rows
    ## # ℹ 4 more variables: entrance_type <chr>, ada <lgl>, route_name <chr>,
    ## #   route_number <chr>
…
trash_wheel = 
  read_excel("data/202409 Trash Wheel Collection Data.xlsx", sheet = "Mr. Trash Wheel", skip = 1) |>
  janitor::clean_names() |>
  select(dumpster, month, year, date, weight_tons, volume_cubic_yards, plastic_bottles, polystyrene,
         cigarette_butts, glass_bottles, plastic_bags, wrappers, 
         sports_balls, homes_powered) |>
  filter(!is.na(dumpster)) |>
  mutate(sports_balls = as.integer(round(sports_balls)), 
         homes_powered = (weight_tons * 500 / 30),
         trash_wheel = "Mr. Trash Wheel")

trash_wheel
```

    ## # A tibble: 651 × 15
    ##    dumpster month year  date                weight_tons volume_cubic_yards
    ##       <dbl> <chr> <chr> <dttm>                    <dbl>              <dbl>
    ##  1        1 May   2014  2014-05-16 00:00:00        4.31                 18
    ##  2        2 May   2014  2014-05-16 00:00:00        2.74                 13
    ##  3        3 May   2014  2014-05-16 00:00:00        3.45                 15
    ##  4        4 May   2014  2014-05-17 00:00:00        3.1                  15
    ##  5        5 May   2014  2014-05-17 00:00:00        4.06                 18
    ##  6        6 May   2014  2014-05-20 00:00:00        2.71                 13
    ##  7        7 May   2014  2014-05-21 00:00:00        1.91                  8
    ##  8        8 May   2014  2014-05-28 00:00:00        3.7                  16
    ##  9        9 June  2014  2014-06-05 00:00:00        2.52                 14
    ## 10       10 June  2014  2014-06-11 00:00:00        3.76                 18
    ## # ℹ 641 more rows
    ## # ℹ 9 more variables: plastic_bottles <dbl>, polystyrene <dbl>,
    ## #   cigarette_butts <dbl>, glass_bottles <dbl>, plastic_bags <dbl>,
    ## #   wrappers <dbl>, sports_balls <int>, homes_powered <dbl>, trash_wheel <chr>
…
``` r
prof_trash_wheel = 
  read_excel("data/202409 Trash Wheel Collection Data.xlsx", sheet = "Professor Trash Wheel", skip = 1) |>
  janitor::clean_names() |>
  select(dumpster, month, year, date, weight_tons, volume_cubic_yards, plastic_bottles,
         polystyrene, cigarette_butts, glass_bottles, plastic_bags, wrappers, homes_powered) |>
  filter(!is.na(dumpster)) |>
  mutate(year = as.character(year),
         trash_wheel = "Professor Trash Wheel")
  
prof_trash_wheel
```

    ## # A tibble: 119 × 14
    ##    dumpster month    year  date                weight_tons volume_cubic_yards
    ##       <dbl> <chr>    <chr> <dttm>                    <dbl>              <dbl>
    ##  1        1 January  2017  2017-01-02 00:00:00        1.79                 15
    ##  2        2 January  2017  2017-01-30 00:00:00        1.58                 15
    ##  3        3 February 2017  2017-02-26 00:00:00        2.32                 18
    ##  4        4 February 2017  2017-02-26 00:00:00        3.72                 15
    ##  5        5 February 2017  2017-02-28 00:00:00        1.45                 15
    ##  6        6 March    2017  2017-03-30 00:00:00        1.71                 15
    ##  7        7 April    2017  2017-04-01 00:00:00        1.82                 15
    ##  8        8 April    2017  2017-04-20 00:00:00        2.37                 15
    ##  9        9 May      2017  2017-05-10 00:00:00        2.64                 15
    ## 10       10 May      2017  2017-05-26 00:00:00        2.78                 15
    ## # ℹ 109 more rows
    ## # ℹ 8 more variables: plastic_bottles <dbl>, polystyrene <dbl>,
    ## #   cigarette_butts <dbl>, glass_bottles <dbl>, plastic_bags <dbl>,
    ## #   wrappers <dbl>, homes_powered <dbl>, trash_wheel <chr>
…
``` r
gwynnda_trash_wheel = 
  read_excel("data/202409 Trash Wheel Collection Data.xlsx", sheet = "Gwynnda Trash Wheel", skip = 1) |>
  janitor::clean_names() |>
  select(dumpster, month, year, date, weight_tons, volume_cubic_yards, plastic_bottles,
         polystyrene, cigarette_butts, plastic_bags, wrappers, homes_powered) |>
  filter(!is.na(dumpster)) |>
  mutate(year = as.character(year),
         trash_wheel = "Gwynnda Trash Wheel")

gwynnda_trash_wheel
```

    ## # A tibble: 263 × 13
    ##    dumpster month  year  date                weight_tons volume_cubic_yards
    ##       <dbl> <chr>  <chr> <dttm>                    <dbl>              <dbl>
    ##  1        1 July   2021  2021-07-03 00:00:00        0.93                 15
    ##  2        2 July   2021  2021-07-07 00:00:00        2.26                 15
    ##  3        3 July   2021  2021-07-07 00:00:00        1.62                 15
    ##  4        4 July   2021  2021-07-16 00:00:00        1.76                 15
    ##  5        5 July   2021  2021-07-30 00:00:00        1.53                 15
    ##  6        6 August 2021  2021-08-11 00:00:00        2.06                 15
    ##  7        7 August 2021  2021-08-14 00:00:00        1.9                  15
    ##  8        8 August 2021  2021-08-16 00:00:00        2.16                 15
    ##  9        9 August 2021  2021-08-16 00:00:00        2.6                  15
    ## 10       10 August 2021  2021-08-17 00:00:00        3.21                 15
    ## # ℹ 253 more rows
    ## # ℹ 7 more variables: plastic_bottles <dbl>, polystyrene <dbl>,
    ## #   cigarette_butts <dbl>, plastic_bags <dbl>, wrappers <dbl>,
    ## #   homes_powered <dbl>, trash_wheel <chr>

Combine the datasets and produce a single tidy dataset:

``` r
combine = 
  bind_rows(trash_wheel, prof_trash_wheel, gwynnda_trash_wheel)

combine
```

    ## # A tibble: 1,033 × 15
    ##    dumpster month year  date                weight_tons volume_cubic_yards
    ##       <dbl> <chr> <chr> <dttm>                    <dbl>              <dbl>
    ##  1        1 May   2014  2014-05-16 00:00:00        4.31                 18
    ##  2        2 May   2014  2014-05-16 00:00:00        2.74                 13
    ##  3        3 May   2014  2014-05-16 00:00:00        3.45                 15
    ##  4        4 May   2014  2014-05-17 00:00:00        3.1                  15
    ##  5        5 May   2014  2014-05-17 00:00:00        4.06                 18
    ##  6        6 May   2014  2014-05-20 00:00:00        2.71                 13
    ##  7        7 May   2014  2014-05-21 00:00:00        1.91                  8
    ##  8        8 May   2014  2014-05-28 00:00:00        3.7                  16
    ##  9        9 June  2014  2014-06-05 00:00:00        2.52                 14
    ## 10       10 June  2014  2014-06-11 00:00:00        3.76                 18
    ## # ℹ 1,023 more rows
    ## # ℹ 9 more variables: plastic_bottles <dbl>, polystyrene <dbl>,
    ## #   cigarette_butts <dbl>, glass_bottles <dbl>, plastic_bags <dbl>,
    ## #   wrappers <dbl>, sports_balls <int>, homes_powered <dbl>, trash_wheel <chr>
…
results = 
  read_csv("data/gbb_datasets/results.csv", skip = 2) |>
  janitor::clean_names() |>
  mutate(series = as.numeric(series),
         episode = as.numeric(episode))
```

Use `anti_join` to compare the datasets and check for completeness and
correctness across datasets:

``` r
anti_join(bakers, bakes, by = c("series", "baker"))
```

    ## # A tibble: 26 × 6
    ##    baker_name          series baker_age baker_occupation          hometown baker
    ##    <chr>                <dbl>     <dbl> <chr>                     <chr>    <chr>
    ##  1 Alice Fevronia          10        28 Geography teacher         Essex    Alice
    ##  2 Amelia LeBruin          10        24 Fashion designer          Halifax  Amel…
    ##  3 Antony Amourdoux         9        30 Banker                    London   Anto…
    ##  4 Briony Williams          9        33 Full-time parent          Bristol  Brio…
    ##  5 Dan Beasley-Harling      9        36 Full-time parent          London   Dan  
    ##  6 Dan Chambers            10        32 Support worker            Rotherh… Dan  
    ##  7 David Atherton          10        36 International health adv… Whitby   David
    ##  8 Helena Garcia           10        40 Online project manager    Leeds    Hele…
    ##  9 Henry Bird              10        20 Student                   Durham   Henry
    ## 10 Imelda McCarron          9        33 Countryside recreation o… County … Imel…
    ## # ℹ 16 more rows
…
``` r
anti_join(results, bakes, by = c("series", "episode", "baker"))
```

    ## # A tibble: 596 × 5
    ##    series episode baker    technical result
    ##     <dbl>   <dbl> <chr>        <dbl> <chr> 
    ##  1      1       2 Lea             NA <NA>  
    ##  2      1       2 Mark            NA <NA>  
    ##  3      1       3 Annetha         NA <NA>  
    ##  4      1       3 Lea             NA <NA>  
    ##  5      1       3 Louise          NA <NA>  
    ##  6      1       3 Mark            NA <NA>  
    ##  7      1       4 Annetha         NA <NA>  
    ##  8      1       4 Jonathan        NA <NA>  
    ##  9      1       4 Lea             NA <NA>  
    ## 10      1       4 Louise          NA <NA>  
    ## # ℹ 586 more rows
…
